COVID-19 Cleaning
…
# Here, I subset the data so as to properly collapse by country.
myvarstemporary <- c("COUNTRY", "Date", "Confirmed_Cases", "Deceased")

Temporary_Data_Country <- Temporary_Data_Country[myvarstemporary]

Temporary_Data_Country <- Temporary_Data_Country %>%
  group_by(COUNTRY, Date) %>%
  summarise(Total_Cases_Country = sum(Confirmed_Cases), Total_Deceased_Country = sum(Deceased))

# I next want to calculate the increase in deaths and confirmed cases per day.

Temporary_Data_Country %>%
  arrange(COUNTRY, Date)

## # A tibble: 18,130 x 4
## # Groups:   COUNTRY [185]
##    COUNTRY     Date       Total_Cases_Country Total_Deceased_Country
##    <chr>       <date>                   <dbl>                  <dbl>
##  1 Afghanistan 2020-01-22                   0                      0
##  2 Afghanistan 2020-01-23                   0                      0
##  3 Afghanistan 2020-01-24                   0                      0
##  4 Afghanistan 2020-01-25                   0                      0
##  5 Afghanistan 2020-01-26                   0                      0
##  6 Afghanistan 2020-01-27                   0                      0
##  7 Afghanistan 2020-01-28                   0                      0
##  8 Afghanistan 2020-01-29                   0                      0
##  9 Afghanistan 2020-01-30                   0                      0
## 10 Afghanistan 2020-01-31                   0                      0
## #  with 18,120 more rows
…
